Data Cleaning HW
…
# file names
snowsurvey_fixed <- read_csv("data/processed/snow_cover.csv")

Snow survey data

Water Cover

#check the count of variables in column
snowsurvey_fixed %>% 
  count(Water_cover)

# A tibble: 79 × 2
   Water_cover     n
   <chr>       <int>
 1 -              10
 2 .             575
 3 0           18286
 4 0.25            1
 5 1              16
 6 1.25            4
 7 1.75            1
 8 10           5185
 9 100           157
10 11.25           1
# ℹ 69 more rows
…
# A tibble: 0 × 11
# ℹ 11 variables: Site <chr>, Year <dbl>, Date <chr>, Plot <chr>,
#   Location <chr>, Snow_cover <dbl>, Water_cover <dbl>, Land_cover <chr>,
#   Total_cover <chr>, Observer <chr>, Notes <chr>

Land Cover

#check count of land cover column
snowsurvey_fixed %>% 
  count(Land_cover)

# A tibble: 101 × 2
   Land_cover     n
   <chr>      <int>
 1 -             10
 2 -100           1
 3 -298           1
 4 .            585
 5 0           8030
 6 1             10
 7 1.5            1
 8 10          1252
 9 100         6921
10 11.25          2
# ℹ 91 more rows
…
#turn other vaue to NA
snowsurvey_fixed <- snowsurvey_fixed %>% 
  mutate(Land_cover = ifelse(Land_cover < 0 , NA, Land_cover))

Total Cover

# check total cover counts
snowsurvey_fixed %>% 
  count(Total_cover)

# A tibble: 39 × 2
   Total_cover     n
   <chr>       <int>
 1 -               8
 2 .             545
 3 0            1578
 4 1               1
 5 10            486
 6 100         37449
 7 102             1
 8 105             5
 9 108             1
10 110            13
# ℹ 29 more rows
…
# filter for variables over 100
 snowsurvey_fixed %>% 
  filter(Total_cover > 100)

# A tibble: 22 × 11
   Site   Year Date      Plot  Location Snow_cover Water_cover Land_cover
   <chr> <dbl> <chr>     <chr> <chr>         <dbl>       <dbl>      <dbl>
 1 cari   2011 11-Jun-11 5b    19               35          30         45
 2 cari   2011 11-Jun-11 5b    21                5          55         45
 3 cari   2011 11-Jun-11 5b    22               10          30         70
 4 prba   2011 7-Jun-11  9     35               20          40         50
 5 prba   2011 14-Jun-11 5     4                 5          15         85
 6 barr   2014 8-Jun-14  brw0  f12              75           0         30
 7 barr   2014 8-Jun-14  brw0  h4               75           5         25
 8 barr   2014 4-Jun-14  brw2  d8               65           0         45
 9 barr   2014 6-Jun-14  brw2  b2               65           0         45
10 barr   2014 6-Jun-14  brw2  h8               65           0         45
# ℹ 12 more rows
# ℹ 3 more variables: Total_cover <dbl>, Observer <chr>, Notes <chr>

#filter for totals under 100
 snowsurvey_fixed %>% 
  filter(Total_cover < 100)

# A tibble: 4,721 × 11
   Site   Year Date      Plot    Location  Snow_cover Water_cover Land_cover
   <chr> <dbl> <chr>     <chr>   <chr>          <dbl>       <dbl>      <dbl>
 1 cakr   2013 19-Jun-13 camp    camp rsc2          0           0         15
 2 cari   2011 11-Jun-11 7a      12                15          20         60
 3 cari   2012 19-Jun-12 3b      35                NA          NA         NA
 4 cari   2012 19-Jun-12 3b      36                NA          NA         NA
 5 colv   2012 27-May-12 south   ss9               NA          NA         NA
 6 nome   2011 20-May-11 central 11SN11            25          NA         NA
 7 nome   2011 20-May-11 east    11SN12            15          NA         NA
 8 nome   2011 20-May-11 east    11SN13            40          NA         NA
 9 nome   2011 20-May-11 east    11SN14            40          NA         NA
10 nome   2011 20-May-11 east    11SN15            30          NA         NA
# ℹ 4,711 more rows
# ℹ 3 more variables: Total_cover <dbl>, Observer <chr>, Notes <chr>
…
